{
	"homeserver": "https://matrix.ether.ai",
	"username_prefix": "chatterbox",
	"header": {
		"title": "Fractal Support",
		"avatar": "http://localhost:3002/favicon/favicon-16X16.png"
	},
	"footer": {
		"chatterbox_link": "https://element.io/solutions/chatterbox-embedded-live-chat-for-customer-service",
		"matrix_link": "https://matrix.org"
	},
	"token": "4Nkx6Mi.lVWgrYqE",
	"invite_user": "@balaa:ether.ai",
	"encrypt_room": true,
	"avatar": "http://localhost:3002/favicon/favicon-16X16.png",
	"disable_composer_until_operator_join": false
}
